dump.vcd
$date
	Fri Dec  5 08:40:46 2025
$end
$version
	Icarus Verilog
$end
$timescale
	1ps
$end
$scope module tb_adaptive_beam_steering_unit $end
$var wire 3 ! state_dbg [2:0] $end
$var wire 1 " Y6_relay_iso $end
$var wire 1 # Y5_shutter $end
$var wire 1 $ Y4_fan $end
$var wire 1 % Y3_filter $end
$var wire 1 & Y2_gantry $end
$var wire 1 ' Y1_table $end
$var reg 1 ( A_xray $end
$var reg 1 ) B_dose $end
$var reg 1 * C_pos $end
$var reg 1 + D_temp $end
$var reg 1 , E_vib $end
$var reg 1 - F_power $end
$var reg 1 . clk $end
$var reg 1 / rst_n $end
$scope module dut $end
$var wire 1 ( A_xray $end
$var wire 1 ) B_dose $end
$var wire 1 * C_pos $end
$var wire 1 + D_temp $end
$var wire 1 , E_vib $end
$var wire 1 - F_power $end
$var wire 1 . clk $end
$var wire 1 / rst_n $end
$var wire 3 0 state_dbg [2:0] $end
$var reg 1 ' Y1_table $end
$var reg 1 & Y2_gantry $end
$var reg 1 % Y3_filter $end
$var reg 1 $ Y4_fan $end
$var reg 1 # Y5_shutter $end
$var reg 1 " Y6_relay_iso $end
$var reg 1 1 all_ok $end
$var reg 1 2 emg $end
$var reg 1 3 fault $end
$var reg 3 4 next_state [2:0] $end
$var reg 3 5 state [2:0] $end
$var reg 1 6 warn $end
$upscope $end
$scope task show $end
$upscope $end
$upscope $end
$enddefinitions $end
$comment Show the parameter values. $end
$dumpall
$end
#0
$dumpvars
06
b0 5
b0 4
03
02
11
b0 0
0/
0.
0-
0,
0+
0*
0)
0(
0'
0&
0%
0$
1#
1"
b0 !
$end
#5000
1.
#10000
0.
#15000
1.
#20000
b1 4
0.
1/
#25000
1%
1&
1'
0"
0#
b1 !
b1 0
b1 5
1.
#30000
0.
#35000
1.
#40000
b10 4
01
16
0.
1+
#45000
1$
1%
1&
1'
b10 !
b10 0
b10 5
1.
#50000
0.
#55000
1.
#60000
b1 4
11
06
0.
0+
#65000
0$
1%
1&
1'
b1 !
b1 0
b1 5
1.
#70000
0.
#75000
1.
#80000
b11 4
01
13
0.
1(
#85000
1"
1#
1$
0%
0&
0'
b11 !
b11 0
b11 5
1.
#90000
0.
#95000
1.
#100000
b1 4
11
03
0.
0(
#105000
1%
1&
1'
0"
0#
0$
b1 !
b1 0
b1 5
1.
#110000
0.
#115000
1.
#120000
b100 4
01
12
0.
1)
#125000
1"
1#
1$
0%
0&
0'
b100 !
b100 0
b100 5
1.
#130000
0.
#135000
1.
#140000
11
02
0.
0)
#145000
1.
#150000
0.
#155000
1.
#160000
1"
1#
0$
b0 !
b0 0
b0 5
b0 4
0.
0/
#165000
1.
#170000
0.
#175000
1.
#180000
b1 4
0.
1/
#185000
1%
1&
1'
0"
0#
b1 !
b1 0
b1 5
1.
